{
    "photos": {
        "page": 1,
        "pages": 6089,
        "perpage": 100,
        "total": 608834,
        "photo": [
            {
                "id": "32445815994",
                "owner": "26849514@N06",
                "secret": "685544f61a",
                "server": "712",
                "farm": 1,
                "title": "Grote Knip, Curaçao",
                "ispublic": 1,
                "isfriend": 0,
                "isfamily": 0
            },
            {
                "id": "51704493639",
                "owner": "26849514@N06",
                "secret": "206f959784",
                "server": "65535",
                "farm": 66,
                "title": "Galleria Umberto I, Naples, Italy",
                "ispublic": 1,
                "isfriend": 0,
                "isfamily": 0
            },
            {
                "id": "52300911896",
                "owner": "118788157@N03",
                "secret": "2c6dc5465c",
                "server": "65535",
                "farm": 66,
                "title": "P645N II: Grønholt Rytterskole",
                "ispublic": 1,
                "isfriend": 0,
                "isfamily": 0
            },
            {
                "id": "52301401370",
                "owner": "28435100@N00",
                "secret": "cff7a6f882",
                "server": "65535",
                "farm": 66,
                "title": "Heather Cox Richardson",
                "ispublic": 1,
                "isfriend": 0,
                "isfamily": 0
            },
            {
                "id": "52300915063",
                "owner": "196306530@N04",
                "secret": "caf9339cab",
                "server": "65535",
                "farm": 66,
                "title": "Clases especializadas de publicidad en blogs y tienda online FLUYEZCAMBIOS el 15.06. al senador",
                "ispublic": 1,
                "isfriend": 0,
                "isfamily": 0
            },
            {
                "id": "52300894926",
                "owner": "193205428@N05",
                "secret": "ea36e88717",
                "server": "65535",
                "farm": 66,
                "title": "3 Institute For The Public Services",
                "ispublic": 1,
                "isfriend": 0,
                "isfamily": 0
            },
            {
                "id": "52300887456",
                "owner": "43605963@N07",
                "secret": "1b129b187d",
                "server": "65535",
                "farm": 66,
                "title": "Public Bank KLCC",
                "ispublic": 1,
                "isfriend": 0,
                "isfamily": 0
            },
            {
                "id": "52301377360",
                "owner": "50946698@N04",
                "secret": "11bb009176",
                "server": "65535",
                "farm": 66,
                "title": "Mean Ponies 1-3",
                "ispublic": 1,
                "isfriend": 0,
                "isfamily": 0
            },
            {
                "id": "52301147934",
                "owner": "168865409@N03",
                "secret": "c0155bd8b4",
                "server": "65535",
                "farm": 66,
                "title": "SU-BV 2780 | [DE] Troisdorf-Eschmar, Rheinstraße",
                "ispublic": 1,
                "isfriend": 0,
                "isfamily": 0
            },
            {
                "id": "52300816356",
                "owner": "80614130@N06",
                "secret": "74bb8653a2",
                "server": "65535",
                "farm": 66,
                "title": "6357 NK20 ELW Go North East",
                "ispublic": 1,
                "isfriend": 0,
                "isfamily": 0
            },
            {
                "id": "52301082519",
                "owner": "80614130@N06",
                "secret": "ba5cf776d3",
                "server": "65535",
                "farm": 66,
                "title": "0685 NK66 CXA Go North East",
                "ispublic": 1,
                "isfriend": 0,
                "isfamily": 0
            },
            {
                "id": "52300822483",
                "owner": "80614130@N06",
                "secret": "2cd558f38f",
                "server": "65535",
                "farm": 66,
                "title": "5509 YX10 EYS Go North East",
                "ispublic": 1,
                "isfriend": 0,
                "isfamily": 0
            },
            {
                "id": "52300821768",
                "owner": "80614130@N06",
                "secret": "a0edc2ae2a",
                "server": "65535",
                "farm": 66,
                "title": "6001 NK11 BGZ Go North East",
                "ispublic": 1,
                "isfriend": 0,
                "isfamily": 0
            },
            {
                "id": "52301079649",
                "owner": "80614130@N06",
                "secret": "6557a8884c",
                "server": "65535",
                "farm": 66,
                "title": "6073 NK62 FCC Go North East",
                "ispublic": 1,
                "isfriend": 0,
                "isfamily": 0
            },
            {
                "id": "52301079134",
                "owner": "80614130@N06",
                "secret": "976866363a",
                "server": "65535",
                "farm": 66,
                "title": "6099 NL63 YJC Go North East",
                "ispublic": 1,
                "isfriend": 0,
                "isfamily": 0
            },
            {
                "id": "52300812006",
                "owner": "80614130@N06",
                "secret": "7f33f8697d",
                "server": "65535",
                "farm": 66,
                "title": "6152 LJ62 KDZ Go North East",
                "ispublic": 1,
                "isfriend": 0,
                "isfamily": 0
            },
            {
                "id": "52299826802",
                "owner": "80614130@N06",
                "secret": "9a8fa393aa",
                "server": "65535",
                "farm": 66,
                "title": "6181 SN57 DFX Go North East",
                "ispublic": 1,
                "isfriend": 0,
                "isfamily": 0
            },
            {
                "id": "52300810456",
                "owner": "80614130@N06",
                "secret": "2c7915da86",
                "server": "65535",
                "farm": 66,
                "title": "6302 NK16 BXB Go North East",
                "ispublic": 1,
                "isfriend": 0,
                "isfamily": 0
            },
            {
                "id": "52301301890",
                "owner": "80614130@N06",
                "secret": "a38619ab37",
                "server": "65535",
                "farm": 66,
                "title": "6307 NK16 BXG Go North East",
                "ispublic": 1,
                "isfriend": 0,
                "isfamily": 0
            },
            {
                "id": "52301126629",
                "owner": "9341577@N08",
                "secret": "bbd5096ebc",
                "server": "65535",
                "farm": 66,
                "title": "Carnegie Public Library, Downtown Bryan, TX",
                "ispublic": 1,
                "isfriend": 0,
                "isfamily": 0
            },
            {
                "id": "52300852963",
                "owner": "48369262@N04",
                "secret": "8b5b2cc196",
                "server": "65535",
                "farm": 66,
                "title": "Street Art - Burlington VT Ferry Dock Bart Simpson etc",
                "ispublic": 1,
                "isfriend": 0,
                "isfamily": 0
            },
            {
                "id": "52299859967",
                "owner": "48369262@N04",
                "secret": "29231ffdf5",
                "server": "65535",
                "farm": 66,
                "title": "Street Art - Burlington VT Ferry Dock Bald and Green",
                "ispublic": 1,
                "isfriend": 0,
                "isfamily": 0
            },
            {
                "id": "52301336415",
                "owner": "22333463@N02",
                "secret": "5ac44212bd",
                "server": "65535",
                "farm": 66,
                "title": "Boat on lake - Jardin Public",
                "ispublic": 1,
                "isfriend": 0,
                "isfamily": 0
            }
        ]
    }
}